…
### evaluating best models

``` r
rank_results(tune_rs, rank_metric = "mn_log_loss")
```

    ## # A tibble: 150 x 9
    ##    wflow_id     .config         .metric   mean std_err     n prepr~1 model  rank
    ##    <chr>        <chr>           <chr>    <dbl>   <dbl> <int> <chr>   <chr> <int>
    ##  1 basic_glmnet Preprocessor1_~ accura~ 0.814  3.49e-4    10 recipe  logi~     1
    ##  2 basic_glmnet Preprocessor1_~ mn_log~ 0.441  6.65e-4    10 recipe  logi~     1
    ##  3 basic_glmnet Preprocessor1_~ roc_auc 0.719  1.68e-3    10 recipe  logi~     1
    ##  4 basic_glmnet Preprocessor1_~ sens    0.0863 1.62e-3    10 recipe  logi~     1
    ##  5 basic_glmnet Preprocessor1_~ spec    0.988  2.85e-4    10 recipe  logi~     1
    ##  6 basic_glmnet Preprocessor1_~ accura~ 0.814  2.76e-4    10 recipe  logi~     2
    ##  7 basic_glmnet Preprocessor1_~ mn_log~ 0.442  6.58e-4    10 recipe  logi~     2
    ##  8 basic_glmnet Preprocessor1_~ roc_auc 0.718  1.69e-3    10 recipe  logi~     2
    ##  9 basic_glmnet Preprocessor1_~ sens    0.0825 1.50e-3    10 recipe  logi~     2
    ## 10 basic_glmnet Preprocessor1_~ spec    0.989  2.41e-4    10 recipe  logi~     2
    ## # ... with 140 more rows, and abbreviated variable name 1: preprocessor
…
